<mxfile host="app.diagrams.net" modified="2024-04-13T15:55:40.656Z" agent="5.0 (Windows NT 10.0; Win64; x64) AppleWebKit/537.36 (KHTML, like Gecko) Chrome/123.0.0.0 Safari/537.36" etag="mVHdsYKVFGTqcpIbcye4" version="20.0.0" type="gitlab">
  <diagram id="C5RBs43oDa-KdzZeNtuy" name="Page-1">
    <mxGraphModel dx="2307" dy="2451" grid="0" gridSize="10" guides="1" tooltips="1" connect="1" arrows="1" fold="1" page="0" pageScale="1" pageWidth="827" pageHeight="1169" math="0" shadow="0">
      <root>
        <mxCell id="WIyWlLk6GJQsqaUBKTNV-0" />
        <mxCell id="WIyWlLk6GJQsqaUBKTNV-1" parent="WIyWlLk6GJQsqaUBKTNV-0" />
        <mxCell id="zkfFHV4jXpPFQw0GAbJ--0" value="Compiler" style="swimlane;fontStyle=2;align=center;verticalAlign=top;childLayout=stackLayout;horizontal=1;startSize=26;horizontalStack=0;resizeParent=1;resizeLast=0;collapsible=1;marginBottom=0;rounded=0;shadow=0;strokeWidth=1;" parent="WIyWlLk6GJQsqaUBKTNV-1" vertex="1">
          <mxGeometry x="320" y="-880" width="160" height="280" as="geometry">
            <mxRectangle x="230" y="140" width="160" height="26" as="alternateBounds" />
          </mxGeometry>
        </mxCell>
        <mxCell id="zkfFHV4jXpPFQw0GAbJ--1" value="- lexer&#xa;- parser&#xa;- semanticAnalyser&#xa;- codeGenerator&#xa;- errorHandler&#xa;- pythonFileContant&#xa;- syntaxTree&#xa;- semanticTree&#xa;- outputCode" style="text;align=left;verticalAlign=top;spacingLeft=4;spacingRight=4;overflow=hidden;rotatable=0;points=[[0,0.5],[1,0.5]];portConstraint=eastwest;" parent="zkfFHV4jXpPFQw0GAbJ--0" vertex="1">
          <mxGeometry y="26" width="160" height="144" as="geometry" />
        </mxCell>
        <mxCell id="zkfFHV4jXpPFQw0GAbJ--4" value="" style="line;html=1;strokeWidth=1;align=left;verticalAlign=middle;spacingTop=-1;spacingLeft=3;spacingRight=3;rotatable=0;labelPosition=right;points=[];portConstraint=eastwest;" parent="zkfFHV4jXpPFQw0GAbJ--0" vertex="1">
          <mxGeometry y="170" width="160" height="8" as="geometry" />
        </mxCell>
        <mxCell id="zkfFHV4jXpPFQw0GAbJ--5" value="+ compile&#xa;+ lex&#xa;+ parse&#xa;+ semanticAnalyse&#xa;+ codeGenerate&#xa;+ saveCodeToFile" style="text;align=left;verticalAlign=top;spacingLeft=4;spacingRight=4;overflow=hidden;rotatable=0;points=[[0,0.5],[1,0.5]];portConstraint=eastwest;" parent="zkfFHV4jXpPFQw0GAbJ--0" vertex="1">
          <mxGeometry y="178" width="160" height="92" as="geometry" />
        </mxCell>
        <mxCell id="WiS_gK4JU12ZDPDede6Y-0" value="UserInterface" style="swimlane;fontStyle=2;align=center;verticalAlign=top;childLayout=stackLayout;horizontal=1;startSize=26;horizontalStack=0;resizeParent=1;resizeLast=0;collapsible=1;marginBottom=0;rounded=0;shadow=0;strokeWidth=1;" vertex="1" parent="WIyWlLk6GJQsqaUBKTNV-1">
          <mxGeometry x="20" y="-880" width="190" height="250" as="geometry">
            <mxRectangle x="230" y="140" width="160" height="26" as="alternateBounds" />
          </mxGeometry>
        </mxCell>
        <mxCell id="WiS_gK4JU12ZDPDede6Y-2" value="" style="line;html=1;strokeWidth=1;align=left;verticalAlign=middle;spacingTop=-1;spacingLeft=3;spacingRight=3;rotatable=0;labelPosition=right;points=[];portConstraint=eastwest;" vertex="1" parent="WiS_gK4JU12ZDPDede6Y-0">
          <mxGeometry y="26" width="190" height="8" as="geometry" />
        </mxCell>
        <mxCell id="WiS_gK4JU12ZDPDede6Y-3" value="- compilationStepByStep&#xa;- fastCompilation&#xa;- helpMenu&#xa;- holdScreen&#xa;- printLogo&#xa;- printMenuMessage&#xa;- printHelpMenu&#xa;- printLexerExplanation&#xa;- printParserExplanation&#xa;- printSemanticExaplanation&#xa;- printCodeGeneratorExplanation&#xa;- printGeneralExplanation&#xa;+ mainMenu&#xa;+ inputMenu&#xa;+ saveCode" style="text;align=left;verticalAlign=top;spacingLeft=4;spacingRight=4;overflow=hidden;rotatable=0;points=[[0,0.5],[1,0.5]];portConstraint=eastwest;" vertex="1" parent="WiS_gK4JU12ZDPDede6Y-0">
          <mxGeometry y="34" width="190" height="216" as="geometry" />
        </mxCell>
        <mxCell id="WiS_gK4JU12ZDPDede6Y-10" value="CodeGenerator" style="swimlane;fontStyle=2;align=center;verticalAlign=top;childLayout=stackLayout;horizontal=1;startSize=26;horizontalStack=0;resizeParent=1;resizeLast=0;collapsible=1;marginBottom=0;rounded=0;shadow=0;strokeWidth=1;" vertex="1" parent="WIyWlLk6GJQsqaUBKTNV-1">
          <mxGeometry x="930" y="-990" width="190" height="640" as="geometry">
            <mxRectangle x="230" y="140" width="160" height="26" as="alternateBounds" />
          </mxGeometry>
        </mxCell>
        <mxCell id="WiS_gK4JU12ZDPDede6Y-11" value="- functionCode&#xa;- mainFunctionCode&#xa;- globalVariableCode&#xa;- syntaxTree&#xa;- semanticTree&#xa;- currentTabSize" style="text;align=left;verticalAlign=top;spacingLeft=4;spacingRight=4;overflow=hidden;rotatable=0;points=[[0,0.5],[1,0.5]];portConstraint=eastwest;" vertex="1" parent="WiS_gK4JU12ZDPDede6Y-10">
          <mxGeometry y="26" width="190" height="94" as="geometry" />
        </mxCell>
        <mxCell id="WiS_gK4JU12ZDPDede6Y-12" value="" style="line;html=1;strokeWidth=1;align=left;verticalAlign=middle;spacingTop=-1;spacingLeft=3;spacingRight=3;rotatable=0;labelPosition=right;points=[];portConstraint=eastwest;" vertex="1" parent="WiS_gK4JU12ZDPDede6Y-10">
          <mxGeometry y="120" width="190" height="8" as="geometry" />
        </mxCell>
        <mxCell id="WiS_gK4JU12ZDPDede6Y-13" value="- generateGeneral&#xa;- generateWhile&#xa;- generateFor&#xa;- generateIf&#xa;- generateElif&#xa;- generateElse&#xa;- generateDecleration&#xa;- generateFunction&#xa;- generateBreak&#xa;- generateContinue&#xa;- generateReturn&#xa;- generatePrint&#xa;- generateBoolean&#xa;- generateBooleanTerm&#xa;- generateBooleanFactor&#xa;- generateBooleanLiteral&#xa;- generateComparison&#xa;- generateComparisonOperator&#xa;- generateOperand&#xa;- generateCalling&#xa;- generateNumericLiteral&#xa;- generateFunctionCallingPrefix&#xa;- generateArgumentList&#xa;- generateArithemticExpression&#xa;- generateArithemticTerm&#xa;- generateArithemticFactor&#xa;- generateStringLiteral&#xa;- generateAddOperator&#xa;- generateMultOperator&#xa;- generateType&#xa;- findSymbol&#xa;- findSymbolWithoutType&#xa;- getNextSymbolTable&#xa;- printPrefixTabs&#xa;+ generate&#xa;+ printOutputCode" style="text;align=left;verticalAlign=top;spacingLeft=4;spacingRight=4;overflow=hidden;rotatable=0;points=[[0,0.5],[1,0.5]];portConstraint=eastwest;" vertex="1" parent="WiS_gK4JU12ZDPDede6Y-10">
          <mxGeometry y="128" width="190" height="512" as="geometry" />
        </mxCell>
        <mxCell id="WiS_gK4JU12ZDPDede6Y-14" value="ErrorHandler" style="swimlane;fontStyle=0;align=center;verticalAlign=top;childLayout=stackLayout;horizontal=1;startSize=26;horizontalStack=0;resizeParent=1;resizeLast=0;collapsible=1;marginBottom=0;rounded=0;shadow=0;strokeWidth=1;" vertex="1" parent="WIyWlLk6GJQsqaUBKTNV-1">
          <mxGeometry x="320" y="-982" width="160" height="65" as="geometry">
            <mxRectangle x="340" y="380" width="170" height="26" as="alternateBounds" />
          </mxGeometry>
        </mxCell>
        <mxCell id="WiS_gK4JU12ZDPDede6Y-16" value="" style="line;html=1;strokeWidth=1;align=left;verticalAlign=middle;spacingTop=-1;spacingLeft=3;spacingRight=3;rotatable=0;labelPosition=right;points=[];portConstraint=eastwest;" vertex="1" parent="WiS_gK4JU12ZDPDede6Y-14">
          <mxGeometry y="26" width="160" height="8" as="geometry" />
        </mxCell>
        <mxCell id="WiS_gK4JU12ZDPDede6Y-17" value="+ handleError" style="text;align=left;verticalAlign=top;spacingLeft=4;spacingRight=4;overflow=hidden;rotatable=0;points=[[0,0.5],[1,0.5]];portConstraint=eastwest;" vertex="1" parent="WiS_gK4JU12ZDPDede6Y-14">
          <mxGeometry y="34" width="160" height="26" as="geometry" />
        </mxCell>
        <mxCell id="WiS_gK4JU12ZDPDede6Y-18" value="FiniteStateMachine" style="swimlane;fontStyle=2;align=center;verticalAlign=top;childLayout=stackLayout;horizontal=1;startSize=26;horizontalStack=0;resizeParent=1;resizeLast=0;collapsible=1;marginBottom=0;rounded=0;shadow=0;strokeWidth=1;" vertex="1" parent="WIyWlLk6GJQsqaUBKTNV-1">
          <mxGeometry x="20" y="-370" width="340" height="240" as="geometry">
            <mxRectangle x="230" y="140" width="160" height="26" as="alternateBounds" />
          </mxGeometry>
        </mxCell>
        <mxCell id="WiS_gK4JU12ZDPDede6Y-19" value="- finiteStateMachineTable" style="text;align=left;verticalAlign=top;spacingLeft=4;spacingRight=4;overflow=hidden;rotatable=0;points=[[0,0.5],[1,0.5]];portConstraint=eastwest;" vertex="1" parent="WiS_gK4JU12ZDPDede6Y-18">
          <mxGeometry y="26" width="340" height="24" as="geometry" />
        </mxCell>
        <mxCell id="WiS_gK4JU12ZDPDede6Y-20" value="" style="line;html=1;strokeWidth=1;align=left;verticalAlign=middle;spacingTop=-1;spacingLeft=3;spacingRight=3;rotatable=0;labelPosition=right;points=[];portConstraint=eastwest;" vertex="1" parent="WiS_gK4JU12ZDPDede6Y-18">
          <mxGeometry y="50" width="340" height="8" as="geometry" />
        </mxCell>
        <mxCell id="WiS_gK4JU12ZDPDede6Y-21" value="- addState&#xa;- addConnection&#xa;- addNumericLiteralState&#xa;- addStringLiteralState&#xa;- addIdentifierStates&#xa;- addIdentifierCharacterPossibilities&#xa;- addGeneralTokenCreationConnection&#xa;- addTokenCreationConnectionForKeywordsIdentifiersLiterals&#xa;- addTokenCreationConnectionForPunctuation&#xa;- addTokenCreationConnectionForOperator&#xa;- addNegativeNumberState&#xa;+ buildStateMachine" style="text;align=left;verticalAlign=top;spacingLeft=4;spacingRight=4;overflow=hidden;rotatable=0;points=[[0,0.5],[1,0.5]];portConstraint=eastwest;" vertex="1" parent="WiS_gK4JU12ZDPDede6Y-18">
          <mxGeometry y="58" width="340" height="182" as="geometry" />
        </mxCell>
        <mxCell id="WiS_gK4JU12ZDPDede6Y-22" value="Lexer" style="swimlane;fontStyle=2;align=center;verticalAlign=top;childLayout=stackLayout;horizontal=1;startSize=26;horizontalStack=0;resizeParent=1;resizeLast=0;collapsible=1;marginBottom=0;rounded=0;shadow=0;strokeWidth=1;" vertex="1" parent="WIyWlLk6GJQsqaUBKTNV-1">
          <mxGeometry x="20" y="-600" width="160" height="120" as="geometry">
            <mxRectangle x="230" y="140" width="160" height="26" as="alternateBounds" />
          </mxGeometry>
        </mxCell>
        <mxCell id="WiS_gK4JU12ZDPDede6Y-23" value="- tokens&#xa;- finiteStateMachine" style="text;align=left;verticalAlign=top;spacingLeft=4;spacingRight=4;overflow=hidden;rotatable=0;points=[[0,0.5],[1,0.5]];portConstraint=eastwest;" vertex="1" parent="WiS_gK4JU12ZDPDede6Y-22">
          <mxGeometry y="26" width="160" height="44" as="geometry" />
        </mxCell>
        <mxCell id="WiS_gK4JU12ZDPDede6Y-24" value="" style="line;html=1;strokeWidth=1;align=left;verticalAlign=middle;spacingTop=-1;spacingLeft=3;spacingRight=3;rotatable=0;labelPosition=right;points=[];portConstraint=eastwest;" vertex="1" parent="WiS_gK4JU12ZDPDede6Y-22">
          <mxGeometry y="70" width="160" height="8" as="geometry" />
        </mxCell>
        <mxCell id="WiS_gK4JU12ZDPDede6Y-25" value="+ lex&#xa;+ printTokens" style="text;align=left;verticalAlign=top;spacingLeft=4;spacingRight=4;overflow=hidden;rotatable=0;points=[[0,0.5],[1,0.5]];portConstraint=eastwest;" vertex="1" parent="WiS_gK4JU12ZDPDede6Y-22">
          <mxGeometry y="78" width="160" height="42" as="geometry" />
        </mxCell>
        <mxCell id="WiS_gK4JU12ZDPDede6Y-26" value="Token" style="swimlane;fontStyle=2;align=center;verticalAlign=top;childLayout=stackLayout;horizontal=1;startSize=26;horizontalStack=0;resizeParent=1;resizeLast=0;collapsible=1;marginBottom=0;rounded=0;shadow=0;strokeWidth=1;" vertex="1" parent="WIyWlLk6GJQsqaUBKTNV-1">
          <mxGeometry x="600" y="-560" width="160" height="148" as="geometry">
            <mxRectangle x="230" y="140" width="160" height="26" as="alternateBounds" />
          </mxGeometry>
        </mxCell>
        <mxCell id="WiS_gK4JU12ZDPDede6Y-27" value="- value&#xa;- tokenCode&#xa;- tokenType&#xa;- tokenLine" style="text;align=left;verticalAlign=top;spacingLeft=4;spacingRight=4;overflow=hidden;rotatable=0;points=[[0,0.5],[1,0.5]];portConstraint=eastwest;" vertex="1" parent="WiS_gK4JU12ZDPDede6Y-26">
          <mxGeometry y="26" width="160" height="74" as="geometry" />
        </mxCell>
        <mxCell id="WiS_gK4JU12ZDPDede6Y-28" value="" style="line;html=1;strokeWidth=1;align=left;verticalAlign=middle;spacingTop=-1;spacingLeft=3;spacingRight=3;rotatable=0;labelPosition=right;points=[];portConstraint=eastwest;" vertex="1" parent="WiS_gK4JU12ZDPDede6Y-26">
          <mxGeometry y="100" width="160" height="8" as="geometry" />
        </mxCell>
        <mxCell id="WiS_gK4JU12ZDPDede6Y-29" value="- checkLiteralType" style="text;align=left;verticalAlign=top;spacingLeft=4;spacingRight=4;overflow=hidden;rotatable=0;points=[[0,0.5],[1,0.5]];portConstraint=eastwest;" vertex="1" parent="WiS_gK4JU12ZDPDede6Y-26">
          <mxGeometry y="108" width="160" height="40" as="geometry" />
        </mxCell>
        <mxCell id="WiS_gK4JU12ZDPDede6Y-30" value="TokenFactory" style="swimlane;fontStyle=0;align=center;verticalAlign=top;childLayout=stackLayout;horizontal=1;startSize=26;horizontalStack=0;resizeParent=1;resizeLast=0;collapsible=1;marginBottom=0;rounded=0;shadow=0;strokeWidth=1;" vertex="1" parent="WIyWlLk6GJQsqaUBKTNV-1">
          <mxGeometry x="210" y="-460" width="160" height="65" as="geometry">
            <mxRectangle x="340" y="380" width="170" height="26" as="alternateBounds" />
          </mxGeometry>
        </mxCell>
        <mxCell id="WiS_gK4JU12ZDPDede6Y-31" value="" style="line;html=1;strokeWidth=1;align=left;verticalAlign=middle;spacingTop=-1;spacingLeft=3;spacingRight=3;rotatable=0;labelPosition=right;points=[];portConstraint=eastwest;" vertex="1" parent="WiS_gK4JU12ZDPDede6Y-30">
          <mxGeometry y="26" width="160" height="8" as="geometry" />
        </mxCell>
        <mxCell id="WiS_gK4JU12ZDPDede6Y-32" value="+ createToken" style="text;align=left;verticalAlign=top;spacingLeft=4;spacingRight=4;overflow=hidden;rotatable=0;points=[[0,0.5],[1,0.5]];portConstraint=eastwest;" vertex="1" parent="WiS_gK4JU12ZDPDede6Y-30">
          <mxGeometry y="34" width="160" height="26" as="geometry" />
        </mxCell>
        <mxCell id="WiS_gK4JU12ZDPDede6Y-34" value="SemanticAnalyser" style="swimlane;fontStyle=2;align=center;verticalAlign=top;childLayout=stackLayout;horizontal=1;startSize=26;horizontalStack=0;resizeParent=1;resizeLast=0;collapsible=1;marginBottom=0;rounded=0;shadow=0;strokeWidth=1;" vertex="1" parent="WIyWlLk6GJQsqaUBKTNV-1">
          <mxGeometry x="850" y="-280" width="260" height="340" as="geometry">
            <mxRectangle x="230" y="140" width="160" height="26" as="alternateBounds" />
          </mxGeometry>
        </mxCell>
        <mxCell id="WiS_gK4JU12ZDPDede6Y-35" value="- symbolTableTree&#xa;- parseTree&#xa;- variablesToAddToNextTable&#xa;- tableFunctionName" style="text;align=left;verticalAlign=top;spacingLeft=4;spacingRight=4;overflow=hidden;rotatable=0;points=[[0,0.5],[1,0.5]];portConstraint=eastwest;" vertex="1" parent="WiS_gK4JU12ZDPDede6Y-34">
          <mxGeometry y="26" width="260" height="64" as="geometry" />
        </mxCell>
        <mxCell id="WiS_gK4JU12ZDPDede6Y-36" value="" style="line;html=1;strokeWidth=1;align=left;verticalAlign=middle;spacingTop=-1;spacingLeft=3;spacingRight=3;rotatable=0;labelPosition=right;points=[];portConstraint=eastwest;" vertex="1" parent="WiS_gK4JU12ZDPDede6Y-34">
          <mxGeometry y="90" width="260" height="8" as="geometry" />
        </mxCell>
        <mxCell id="WiS_gK4JU12ZDPDede6Y-37" value="- scanSyntaxTree&#xa;- addDecleration&#xa;- addFunction&#xa;- validateCalling&#xa;- validateReturnType&#xa;- addForLoopLocalVariable&#xa;- validateBreakContinue&#xa;- checkUfSymbolExistByNameAndType&#xa;- checkUfSymbolExistByNameOnly&#xa;- checkIfFunctionExistByNameAndArguments&#xa;- loadParametersToVector&#xa;- loadArgumentsToVector&#xa;- checkIfVariablePending&#xa;- searchForTableName&#xa;- searchForLoopTable&#xa;+ buildSymbolTable" style="text;align=left;verticalAlign=top;spacingLeft=4;spacingRight=4;overflow=hidden;rotatable=0;points=[[0,0.5],[1,0.5]];portConstraint=eastwest;" vertex="1" parent="WiS_gK4JU12ZDPDede6Y-34">
          <mxGeometry y="98" width="260" height="242" as="geometry" />
        </mxCell>
        <mxCell id="WiS_gK4JU12ZDPDede6Y-39" value="Symbol" style="swimlane;fontStyle=2;align=center;verticalAlign=top;childLayout=stackLayout;horizontal=1;startSize=26;horizontalStack=0;resizeParent=1;resizeLast=0;collapsible=1;marginBottom=0;rounded=0;shadow=0;strokeWidth=1;" vertex="1" parent="WIyWlLk6GJQsqaUBKTNV-1">
          <mxGeometry x="200" y="-10" width="160" height="110" as="geometry">
            <mxRectangle x="230" y="140" width="160" height="26" as="alternateBounds" />
          </mxGeometry>
        </mxCell>
        <mxCell id="WiS_gK4JU12ZDPDede6Y-40" value="- symbolType&#xa;- functionSymbolReturnType&#xa;- isSymbolDeclered&#xa;- symbolName&#xa;- functionSymbolParameters" style="text;align=left;verticalAlign=top;spacingLeft=4;spacingRight=4;overflow=hidden;rotatable=0;points=[[0,0.5],[1,0.5]];portConstraint=eastwest;" vertex="1" parent="WiS_gK4JU12ZDPDede6Y-39">
          <mxGeometry y="26" width="160" height="74" as="geometry" />
        </mxCell>
        <mxCell id="WiS_gK4JU12ZDPDede6Y-41" value="" style="line;html=1;strokeWidth=1;align=left;verticalAlign=middle;spacingTop=-1;spacingLeft=3;spacingRight=3;rotatable=0;labelPosition=right;points=[];portConstraint=eastwest;" vertex="1" parent="WiS_gK4JU12ZDPDede6Y-39">
          <mxGeometry y="100" width="160" height="8" as="geometry" />
        </mxCell>
        <mxCell id="WiS_gK4JU12ZDPDede6Y-43" value="SymbolTableTreeNode" style="swimlane;fontStyle=2;align=center;verticalAlign=top;childLayout=stackLayout;horizontal=1;startSize=26;horizontalStack=0;resizeParent=1;resizeLast=0;collapsible=1;marginBottom=0;rounded=0;shadow=0;strokeWidth=1;fillColor=#dae8fc;strokeColor=#6c8ebf;" vertex="1" parent="WIyWlLk6GJQsqaUBKTNV-1">
          <mxGeometry x="400" y="-10" width="160" height="110" as="geometry">
            <mxRectangle x="230" y="140" width="160" height="26" as="alternateBounds" />
          </mxGeometry>
        </mxCell>
        <mxCell id="WiS_gK4JU12ZDPDede6Y-44" value="+ data&#xa;+ parent&#xa;+ children&#xa;+ tableName&#xa;+ isVisited" style="text;align=left;verticalAlign=top;spacingLeft=4;spacingRight=4;overflow=hidden;rotatable=0;points=[[0,0.5],[1,0.5]];portConstraint=eastwest;fillColor=#dae8fc;strokeColor=#6c8ebf;" vertex="1" parent="WiS_gK4JU12ZDPDede6Y-43">
          <mxGeometry y="26" width="160" height="74" as="geometry" />
        </mxCell>
        <mxCell id="WiS_gK4JU12ZDPDede6Y-45" value="" style="line;html=1;strokeWidth=1;align=left;verticalAlign=middle;spacingTop=-1;spacingLeft=3;spacingRight=3;rotatable=0;labelPosition=right;points=[];portConstraint=eastwest;fillColor=#dae8fc;strokeColor=#6c8ebf;" vertex="1" parent="WiS_gK4JU12ZDPDede6Y-43">
          <mxGeometry y="100" width="160" height="8" as="geometry" />
        </mxCell>
        <mxCell id="WiS_gK4JU12ZDPDede6Y-46" value="SymbolTableTree" style="swimlane;fontStyle=2;align=center;verticalAlign=top;childLayout=stackLayout;horizontal=1;startSize=26;horizontalStack=0;resizeParent=1;resizeLast=0;collapsible=1;marginBottom=0;rounded=0;shadow=0;strokeWidth=1;" vertex="1" parent="WIyWlLk6GJQsqaUBKTNV-1">
          <mxGeometry x="600" y="-10" width="160" height="130" as="geometry">
            <mxRectangle x="230" y="140" width="160" height="26" as="alternateBounds" />
          </mxGeometry>
        </mxCell>
        <mxCell id="WiS_gK4JU12ZDPDede6Y-47" value="- root" style="text;align=left;verticalAlign=top;spacingLeft=4;spacingRight=4;overflow=hidden;rotatable=0;points=[[0,0.5],[1,0.5]];portConstraint=eastwest;" vertex="1" parent="WiS_gK4JU12ZDPDede6Y-46">
          <mxGeometry y="26" width="160" height="24" as="geometry" />
        </mxCell>
        <mxCell id="WiS_gK4JU12ZDPDede6Y-48" value="" style="line;html=1;strokeWidth=1;align=left;verticalAlign=middle;spacingTop=-1;spacingLeft=3;spacingRight=3;rotatable=0;labelPosition=right;points=[];portConstraint=eastwest;" vertex="1" parent="WiS_gK4JU12ZDPDede6Y-46">
          <mxGeometry y="50" width="160" height="8" as="geometry" />
        </mxCell>
        <mxCell id="WiS_gK4JU12ZDPDede6Y-49" value="- destroy&#xa;- recursivePrint&#xa;+ addChild&#xa;+ printTree" style="text;align=left;verticalAlign=top;spacingLeft=4;spacingRight=4;overflow=hidden;rotatable=0;points=[[0,0.5],[1,0.5]];portConstraint=eastwest;" vertex="1" parent="WiS_gK4JU12ZDPDede6Y-46">
          <mxGeometry y="58" width="160" height="72" as="geometry" />
        </mxCell>
        <mxCell id="WiS_gK4JU12ZDPDede6Y-50" value="ActionTable" style="swimlane;fontStyle=0;align=center;verticalAlign=top;childLayout=stackLayout;horizontal=1;startSize=26;horizontalStack=0;resizeParent=1;resizeLast=0;collapsible=1;marginBottom=0;rounded=0;shadow=0;strokeWidth=1;" vertex="1" parent="WIyWlLk6GJQsqaUBKTNV-1">
          <mxGeometry x="470" y="-1120" width="160" height="60" as="geometry">
            <mxRectangle x="340" y="380" width="170" height="26" as="alternateBounds" />
          </mxGeometry>
        </mxCell>
        <mxCell id="WiS_gK4JU12ZDPDede6Y-51" value="- actionTable" style="text;align=left;verticalAlign=top;spacingLeft=4;spacingRight=4;overflow=hidden;rotatable=0;points=[[0,0.5],[1,0.5]];portConstraint=eastwest;" vertex="1" parent="WiS_gK4JU12ZDPDede6Y-50">
          <mxGeometry y="26" width="160" height="26" as="geometry" />
        </mxCell>
        <mxCell id="WiS_gK4JU12ZDPDede6Y-52" value="" style="line;html=1;strokeWidth=1;align=left;verticalAlign=middle;spacingTop=-1;spacingLeft=3;spacingRight=3;rotatable=0;labelPosition=right;points=[];portConstraint=eastwest;" vertex="1" parent="WiS_gK4JU12ZDPDede6Y-50">
          <mxGeometry y="52" width="160" height="8" as="geometry" />
        </mxCell>
        <mxCell id="WiS_gK4JU12ZDPDede6Y-54" value="GotoTable" style="swimlane;fontStyle=0;align=center;verticalAlign=top;childLayout=stackLayout;horizontal=1;startSize=26;horizontalStack=0;resizeParent=1;resizeLast=0;collapsible=1;marginBottom=0;rounded=0;shadow=0;strokeWidth=1;" vertex="1" parent="WIyWlLk6GJQsqaUBKTNV-1">
          <mxGeometry x="570" y="-1042" width="160" height="60" as="geometry">
            <mxRectangle x="340" y="380" width="170" height="26" as="alternateBounds" />
          </mxGeometry>
        </mxCell>
        <mxCell id="WiS_gK4JU12ZDPDede6Y-55" value="- gotoTable" style="text;align=left;verticalAlign=top;spacingLeft=4;spacingRight=4;overflow=hidden;rotatable=0;points=[[0,0.5],[1,0.5]];portConstraint=eastwest;" vertex="1" parent="WiS_gK4JU12ZDPDede6Y-54">
          <mxGeometry y="26" width="160" height="26" as="geometry" />
        </mxCell>
        <mxCell id="WiS_gK4JU12ZDPDede6Y-56" value="" style="line;html=1;strokeWidth=1;align=left;verticalAlign=middle;spacingTop=-1;spacingLeft=3;spacingRight=3;rotatable=0;labelPosition=right;points=[];portConstraint=eastwest;" vertex="1" parent="WiS_gK4JU12ZDPDede6Y-54">
          <mxGeometry y="52" width="160" height="8" as="geometry" />
        </mxCell>
        <mxCell id="WiS_gK4JU12ZDPDede6Y-58" value="Grammer" style="swimlane;fontStyle=0;align=center;verticalAlign=top;childLayout=stackLayout;horizontal=1;startSize=26;horizontalStack=0;resizeParent=1;resizeLast=0;collapsible=1;marginBottom=0;rounded=0;shadow=0;strokeWidth=1;" vertex="1" parent="WIyWlLk6GJQsqaUBKTNV-1">
          <mxGeometry x="667" y="-970" width="160" height="60" as="geometry">
            <mxRectangle x="340" y="380" width="170" height="26" as="alternateBounds" />
          </mxGeometry>
        </mxCell>
        <mxCell id="WiS_gK4JU12ZDPDede6Y-59" value="- productionRules" style="text;align=left;verticalAlign=top;spacingLeft=4;spacingRight=4;overflow=hidden;rotatable=0;points=[[0,0.5],[1,0.5]];portConstraint=eastwest;" vertex="1" parent="WiS_gK4JU12ZDPDede6Y-58">
          <mxGeometry y="26" width="160" height="26" as="geometry" />
        </mxCell>
        <mxCell id="WiS_gK4JU12ZDPDede6Y-60" value="" style="line;html=1;strokeWidth=1;align=left;verticalAlign=middle;spacingTop=-1;spacingLeft=3;spacingRight=3;rotatable=0;labelPosition=right;points=[];portConstraint=eastwest;" vertex="1" parent="WiS_gK4JU12ZDPDede6Y-58">
          <mxGeometry y="52" width="160" height="8" as="geometry" />
        </mxCell>
        <mxCell id="WiS_gK4JU12ZDPDede6Y-62" value="TreeNode" style="swimlane;fontStyle=2;align=center;verticalAlign=top;childLayout=stackLayout;horizontal=1;startSize=26;horizontalStack=0;resizeParent=1;resizeLast=0;collapsible=1;marginBottom=0;rounded=0;shadow=0;strokeWidth=1;fillColor=#dae8fc;strokeColor=#6c8ebf;" vertex="1" parent="WIyWlLk6GJQsqaUBKTNV-1">
          <mxGeometry x="600" y="-230" width="160" height="78" as="geometry">
            <mxRectangle x="230" y="140" width="160" height="26" as="alternateBounds" />
          </mxGeometry>
        </mxCell>
        <mxCell id="WiS_gK4JU12ZDPDede6Y-63" value="+ data&#xa;+ children" style="text;align=left;verticalAlign=top;spacingLeft=4;spacingRight=4;overflow=hidden;rotatable=0;points=[[0,0.5],[1,0.5]];portConstraint=eastwest;fillColor=#dae8fc;strokeColor=#6c8ebf;" vertex="1" parent="WiS_gK4JU12ZDPDede6Y-62">
          <mxGeometry y="26" width="160" height="44" as="geometry" />
        </mxCell>
        <mxCell id="WiS_gK4JU12ZDPDede6Y-64" value="" style="line;html=1;strokeWidth=1;align=left;verticalAlign=middle;spacingTop=-1;spacingLeft=3;spacingRight=3;rotatable=0;labelPosition=right;points=[];portConstraint=eastwest;fillColor=#dae8fc;strokeColor=#6c8ebf;" vertex="1" parent="WiS_gK4JU12ZDPDede6Y-62">
          <mxGeometry y="70" width="160" height="8" as="geometry" />
        </mxCell>
        <mxCell id="WiS_gK4JU12ZDPDede6Y-65" value="ParseTree" style="swimlane;fontStyle=2;align=center;verticalAlign=top;childLayout=stackLayout;horizontal=1;startSize=26;horizontalStack=0;resizeParent=1;resizeLast=0;collapsible=1;marginBottom=0;rounded=0;shadow=0;strokeWidth=1;" vertex="1" parent="WIyWlLk6GJQsqaUBKTNV-1">
          <mxGeometry x="600" y="-390" width="160" height="130" as="geometry">
            <mxRectangle x="230" y="140" width="160" height="26" as="alternateBounds" />
          </mxGeometry>
        </mxCell>
        <mxCell id="WiS_gK4JU12ZDPDede6Y-66" value="- root" style="text;align=left;verticalAlign=top;spacingLeft=4;spacingRight=4;overflow=hidden;rotatable=0;points=[[0,0.5],[1,0.5]];portConstraint=eastwest;" vertex="1" parent="WiS_gK4JU12ZDPDede6Y-65">
          <mxGeometry y="26" width="160" height="24" as="geometry" />
        </mxCell>
        <mxCell id="WiS_gK4JU12ZDPDede6Y-67" value="" style="line;html=1;strokeWidth=1;align=left;verticalAlign=middle;spacingTop=-1;spacingLeft=3;spacingRight=3;rotatable=0;labelPosition=right;points=[];portConstraint=eastwest;" vertex="1" parent="WiS_gK4JU12ZDPDede6Y-65">
          <mxGeometry y="50" width="160" height="8" as="geometry" />
        </mxCell>
        <mxCell id="WiS_gK4JU12ZDPDede6Y-68" value="- destroy&#xa;- recursivePrint&#xa;+ addChild&#xa;+ printTree" style="text;align=left;verticalAlign=top;spacingLeft=4;spacingRight=4;overflow=hidden;rotatable=0;points=[[0,0.5],[1,0.5]];portConstraint=eastwest;" vertex="1" parent="WiS_gK4JU12ZDPDede6Y-65">
          <mxGeometry y="58" width="160" height="72" as="geometry" />
        </mxCell>
        <mxCell id="WiS_gK4JU12ZDPDede6Y-69" value="Parser" style="swimlane;fontStyle=2;align=center;verticalAlign=top;childLayout=stackLayout;horizontal=1;startSize=26;horizontalStack=0;resizeParent=1;resizeLast=0;collapsible=1;marginBottom=0;rounded=0;shadow=0;strokeWidth=1;" vertex="1" parent="WIyWlLk6GJQsqaUBKTNV-1">
          <mxGeometry x="580" y="-880" width="200" height="212" as="geometry">
            <mxRectangle x="230" y="140" width="160" height="26" as="alternateBounds" />
          </mxGeometry>
        </mxCell>
        <mxCell id="WiS_gK4JU12ZDPDede6Y-70" value="- gotoTable&#xa;- actionTable&#xa;- tokens&#xa;- syntaxTree" style="text;align=left;verticalAlign=top;spacingLeft=4;spacingRight=4;overflow=hidden;rotatable=0;points=[[0,0.5],[1,0.5]];portConstraint=eastwest;" vertex="1" parent="WiS_gK4JU12ZDPDede6Y-69">
          <mxGeometry y="26" width="200" height="64" as="geometry" />
        </mxCell>
        <mxCell id="WiS_gK4JU12ZDPDede6Y-71" value="" style="line;html=1;strokeWidth=1;align=left;verticalAlign=middle;spacingTop=-1;spacingLeft=3;spacingRight=3;rotatable=0;labelPosition=right;points=[];portConstraint=eastwest;" vertex="1" parent="WiS_gK4JU12ZDPDede6Y-69">
          <mxGeometry y="90" width="200" height="8" as="geometry" />
        </mxCell>
        <mxCell id="WiS_gK4JU12ZDPDede6Y-72" value="- isBlockState&#xa;- isPartOfBlock&#xa;- deleteScopeElementFromStack&#xa;- getSecondTop&#xa;- reduce&#xa;- scopeManagment&#xa;+ parse" style="text;align=left;verticalAlign=top;spacingLeft=4;spacingRight=4;overflow=hidden;rotatable=0;points=[[0,0.5],[1,0.5]];portConstraint=eastwest;" vertex="1" parent="WiS_gK4JU12ZDPDede6Y-69">
          <mxGeometry y="98" width="200" height="112" as="geometry" />
        </mxCell>
        <mxCell id="WiS_gK4JU12ZDPDede6Y-75" value="" style="endArrow=diamondThin;html=1;rounded=0;exitX=-0.016;exitY=0.623;exitDx=0;exitDy=0;exitPerimeter=0;endFill=0;entryX=1;entryY=0.378;entryDx=0;entryDy=0;entryPerimeter=0;endSize=14;" edge="1" parent="WIyWlLk6GJQsqaUBKTNV-1" source="zkfFHV4jXpPFQw0GAbJ--1" target="WiS_gK4JU12ZDPDede6Y-3">
          <mxGeometry width="50" height="50" relative="1" as="geometry">
            <mxPoint x="430" y="-570" as="sourcePoint" />
            <mxPoint x="260" y="-760" as="targetPoint" />
          </mxGeometry>
        </mxCell>
        <mxCell id="WiS_gK4JU12ZDPDede6Y-76" value="" style="endArrow=diamondThin;html=1;rounded=0;exitX=1;exitY=0.5;exitDx=0;exitDy=0;endFill=0;endSize=14;entryX=0.5;entryY=1;entryDx=0;entryDy=0;" edge="1" parent="WIyWlLk6GJQsqaUBKTNV-1" source="WiS_gK4JU12ZDPDede6Y-23" target="zkfFHV4jXpPFQw0GAbJ--0">
          <mxGeometry width="50" height="50" relative="1" as="geometry">
            <mxPoint x="327.4399999999998" y="-754.288" as="sourcePoint" />
            <mxPoint x="400" y="-590" as="targetPoint" />
            <Array as="points">
              <mxPoint x="400" y="-552" />
            </Array>
          </mxGeometry>
        </mxCell>
        <mxCell id="WiS_gK4JU12ZDPDede6Y-77" value="" style="endArrow=diamondThin;html=1;rounded=0;exitX=0.412;exitY=0;exitDx=0;exitDy=0;endFill=0;endSize=14;exitPerimeter=0;" edge="1" parent="WIyWlLk6GJQsqaUBKTNV-1" source="WiS_gK4JU12ZDPDede6Y-18">
          <mxGeometry width="50" height="50" relative="1" as="geometry">
            <mxPoint x="189.99999999999977" y="-542.0000000000002" as="sourcePoint" />
            <mxPoint x="160" y="-480" as="targetPoint" />
            <Array as="points" />
          </mxGeometry>
        </mxCell>
        <mxCell id="WiS_gK4JU12ZDPDede6Y-78" value="" style="endArrow=diamondThin;html=1;rounded=0;exitX=0.5;exitY=0;exitDx=0;exitDy=0;endFill=0;endSize=14;entryX=1;entryY=0.5;entryDx=0;entryDy=0;" edge="1" parent="WIyWlLk6GJQsqaUBKTNV-1" source="WiS_gK4JU12ZDPDede6Y-30" target="WiS_gK4JU12ZDPDede6Y-25">
          <mxGeometry width="50" height="50" relative="1" as="geometry">
            <mxPoint x="170.0799999999997" y="-360" as="sourcePoint" />
            <mxPoint x="169.99999999999977" y="-470" as="targetPoint" />
            <Array as="points">
              <mxPoint x="290" y="-501" />
            </Array>
          </mxGeometry>
        </mxCell>
        <mxCell id="WiS_gK4JU12ZDPDede6Y-80" value="" style="endArrow=diamondThin;html=1;rounded=0;exitX=-0.011;exitY=0.541;exitDx=0;exitDy=0;endFill=0;endSize=14;exitPerimeter=0;" edge="1" parent="WIyWlLk6GJQsqaUBKTNV-1" source="WiS_gK4JU12ZDPDede6Y-72">
          <mxGeometry width="50" height="50" relative="1" as="geometry">
            <mxPoint x="189.99999999999977" y="-542.0000000000002" as="sourcePoint" />
            <mxPoint x="480" y="-720" as="targetPoint" />
            <Array as="points" />
          </mxGeometry>
        </mxCell>
        <mxCell id="WiS_gK4JU12ZDPDede6Y-81" value="" style="endArrow=none;html=1;rounded=0;exitX=0.994;exitY=1.063;exitDx=0;exitDy=0;endFill=0;endSize=14;entryX=0.012;entryY=0.182;entryDx=0;entryDy=0;exitPerimeter=0;entryPerimeter=0;startArrow=diamondThin;startFill=0;targetPerimeterSpacing=0;startSize=14;" edge="1" parent="WIyWlLk6GJQsqaUBKTNV-1" source="WiS_gK4JU12ZDPDede6Y-24" target="WiS_gK4JU12ZDPDede6Y-27">
          <mxGeometry width="50" height="50" relative="1" as="geometry">
            <mxPoint x="190" y="-542.0000000000002" as="sourcePoint" />
            <mxPoint x="410" y="-590" as="targetPoint" />
            <Array as="points">
              <mxPoint x="410" y="-520" />
            </Array>
          </mxGeometry>
        </mxCell>
        <mxCell id="WiS_gK4JU12ZDPDede6Y-82" value="" style="endArrow=diamondThin;html=1;rounded=0;exitX=0.5;exitY=0;exitDx=0;exitDy=0;endFill=0;endSize=14;entryX=0.507;entryY=1.043;entryDx=0;entryDy=0;entryPerimeter=0;" edge="1" parent="WIyWlLk6GJQsqaUBKTNV-1" source="WiS_gK4JU12ZDPDede6Y-26" target="WiS_gK4JU12ZDPDede6Y-72">
          <mxGeometry width="50" height="50" relative="1" as="geometry">
            <mxPoint x="587.8" y="-711.4079999999999" as="sourcePoint" />
            <mxPoint x="720" y="-620" as="targetPoint" />
            <Array as="points" />
          </mxGeometry>
        </mxCell>
        <mxCell id="WiS_gK4JU12ZDPDede6Y-84" value="" style="endArrow=diamondThin;html=1;rounded=0;endFill=0;endSize=14;exitX=0.274;exitY=1.048;exitDx=0;exitDy=0;exitPerimeter=0;entryX=0.112;entryY=0;entryDx=0;entryDy=0;entryPerimeter=0;" edge="1" parent="WIyWlLk6GJQsqaUBKTNV-1" source="WiS_gK4JU12ZDPDede6Y-52" target="WiS_gK4JU12ZDPDede6Y-69">
          <mxGeometry width="50" height="50" relative="1" as="geometry">
            <mxPoint x="500" y="-1050" as="sourcePoint" />
            <mxPoint x="691.4000000000001" y="-655.184" as="targetPoint" />
            <Array as="points">
              <mxPoint x="514" y="-920" />
              <mxPoint x="602" y="-920" />
            </Array>
          </mxGeometry>
        </mxCell>
        <mxCell id="WiS_gK4JU12ZDPDede6Y-85" value="" style="endArrow=diamondThin;html=1;rounded=0;endFill=0;endSize=14;" edge="1" parent="WIyWlLk6GJQsqaUBKTNV-1">
          <mxGeometry width="50" height="50" relative="1" as="geometry">
            <mxPoint x="620" y="-980" as="sourcePoint" />
            <mxPoint x="620" y="-880" as="targetPoint" />
            <Array as="points" />
          </mxGeometry>
        </mxCell>
        <mxCell id="WiS_gK4JU12ZDPDede6Y-86" value="" style="endArrow=diamondThin;html=1;rounded=0;endFill=0;endSize=14;exitX=0.5;exitY=1;exitDx=0;exitDy=0;entryX=0.835;entryY=0;entryDx=0;entryDy=0;entryPerimeter=0;" edge="1" parent="WIyWlLk6GJQsqaUBKTNV-1" source="WiS_gK4JU12ZDPDede6Y-58" target="WiS_gK4JU12ZDPDede6Y-69">
          <mxGeometry width="50" height="50" relative="1" as="geometry">
            <mxPoint x="630" y="-969.9999999999999" as="sourcePoint" />
            <mxPoint x="630" y="-869.9999999999999" as="targetPoint" />
            <Array as="points" />
          </mxGeometry>
        </mxCell>
        <mxCell id="WiS_gK4JU12ZDPDede6Y-87" value="" style="endArrow=diamondThin;html=1;rounded=0;endFill=0;endSize=14;entryX=0.75;entryY=1;entryDx=0;entryDy=0;exitX=0;exitY=0.5;exitDx=0;exitDy=0;" edge="1" parent="WIyWlLk6GJQsqaUBKTNV-1" source="WiS_gK4JU12ZDPDede6Y-68" target="zkfFHV4jXpPFQw0GAbJ--0">
          <mxGeometry width="50" height="50" relative="1" as="geometry">
            <mxPoint x="440" y="-210" as="sourcePoint" />
            <mxPoint x="490" y="-710" as="targetPoint" />
            <Array as="points">
              <mxPoint x="440" y="-296" />
            </Array>
          </mxGeometry>
        </mxCell>
        <mxCell id="WiS_gK4JU12ZDPDede6Y-88" value="" style="endArrow=diamondThin;html=1;rounded=0;endFill=1;endSize=14;" edge="1" parent="WIyWlLk6GJQsqaUBKTNV-1">
          <mxGeometry width="50" height="50" relative="1" as="geometry">
            <mxPoint x="681" y="-230" as="sourcePoint" />
            <mxPoint x="681" y="-260" as="targetPoint" />
            <Array as="points" />
          </mxGeometry>
        </mxCell>
        <mxCell id="WiS_gK4JU12ZDPDede6Y-89" value="" style="endArrow=diamondThin;html=1;rounded=0;endFill=0;endSize=14;entryX=0.001;entryY=0.763;entryDx=0;entryDy=0;exitX=0;exitY=0.5;exitDx=0;exitDy=0;entryPerimeter=0;" edge="1" parent="WIyWlLk6GJQsqaUBKTNV-1" source="WiS_gK4JU12ZDPDede6Y-66" target="WiS_gK4JU12ZDPDede6Y-72">
          <mxGeometry width="50" height="50" relative="1" as="geometry">
            <mxPoint x="610" y="-285.9999999999998" as="sourcePoint" />
            <mxPoint x="449.9999999999998" y="-590" as="targetPoint" />
            <Array as="points">
              <mxPoint x="550" y="-352" />
              <mxPoint x="550" y="-697" />
            </Array>
          </mxGeometry>
        </mxCell>
        <mxCell id="WiS_gK4JU12ZDPDede6Y-90" value="" style="endArrow=diamondThin;html=1;rounded=0;endFill=0;endSize=14;" edge="1" parent="WIyWlLk6GJQsqaUBKTNV-1">
          <mxGeometry width="50" height="50" relative="1" as="geometry">
            <mxPoint x="760" y="-350" as="sourcePoint" />
            <mxPoint x="910" y="-280" as="targetPoint" />
            <Array as="points">
              <mxPoint x="840" y="-350" />
              <mxPoint x="910" y="-350" />
            </Array>
          </mxGeometry>
        </mxCell>
        <mxCell id="WiS_gK4JU12ZDPDede6Y-91" value="" style="endArrow=diamondThin;html=1;rounded=0;endFill=0;endSize=14;exitX=0;exitY=0.586;exitDx=0;exitDy=0;exitPerimeter=0;" edge="1" parent="WIyWlLk6GJQsqaUBKTNV-1" source="WiS_gK4JU12ZDPDede6Y-37">
          <mxGeometry width="50" height="50" relative="1" as="geometry">
            <mxPoint x="840" y="-40" as="sourcePoint" />
            <mxPoint x="420" y="-590" as="targetPoint" />
            <Array as="points">
              <mxPoint x="420" y="-40" />
            </Array>
          </mxGeometry>
        </mxCell>
        <mxCell id="WiS_gK4JU12ZDPDede6Y-92" value="" style="endArrow=diamondThin;html=1;rounded=0;endFill=0;endSize=14;entryX=-0.001;entryY=0.758;entryDx=0;entryDy=0;entryPerimeter=0;" edge="1" parent="WIyWlLk6GJQsqaUBKTNV-1" target="WiS_gK4JU12ZDPDede6Y-37">
          <mxGeometry width="50" height="50" relative="1" as="geometry">
            <mxPoint x="760" y="53" as="sourcePoint" />
            <mxPoint x="977" y="220" as="targetPoint" />
            <Array as="points">
              <mxPoint x="800" y="53" />
              <mxPoint x="800" />
            </Array>
          </mxGeometry>
        </mxCell>
        <mxCell id="WiS_gK4JU12ZDPDede6Y-94" value="" style="endArrow=diamondThin;html=1;rounded=0;endFill=1;endSize=14;exitX=1;exitY=0.5;exitDx=0;exitDy=0;entryX=-0.007;entryY=0.086;entryDx=0;entryDy=0;entryPerimeter=0;" edge="1" parent="WIyWlLk6GJQsqaUBKTNV-1" source="WiS_gK4JU12ZDPDede6Y-44" target="WiS_gK4JU12ZDPDede6Y-49">
          <mxGeometry width="50" height="50" relative="1" as="geometry">
            <mxPoint x="691" y="-220" as="sourcePoint" />
            <mxPoint x="580" y="53" as="targetPoint" />
            <Array as="points" />
          </mxGeometry>
        </mxCell>
        <mxCell id="WiS_gK4JU12ZDPDede6Y-95" value="" style="endArrow=diamondThin;html=1;rounded=0;endFill=0;endSize=14;entryX=1;entryY=0.5;entryDx=0;entryDy=0;exitX=1;exitY=0.5;exitDx=0;exitDy=0;" edge="1" parent="WIyWlLk6GJQsqaUBKTNV-1" source="WiS_gK4JU12ZDPDede6Y-27" target="WiS_gK4JU12ZDPDede6Y-62">
          <mxGeometry width="50" height="50" relative="1" as="geometry">
            <mxPoint x="610" y="-342" as="sourcePoint" />
            <mxPoint x="590.2" y="-686.5439999999999" as="targetPoint" />
            <Array as="points">
              <mxPoint x="810" y="-497" />
              <mxPoint x="810" y="-191" />
            </Array>
          </mxGeometry>
        </mxCell>
        <mxCell id="WiS_gK4JU12ZDPDede6Y-96" value="" style="endArrow=diamondThin;html=1;rounded=0;endFill=0;endSize=14;entryX=-0.007;entryY=0.086;entryDx=0;entryDy=0;entryPerimeter=0;" edge="1" parent="WIyWlLk6GJQsqaUBKTNV-1">
          <mxGeometry width="50" height="50" relative="1" as="geometry">
            <mxPoint x="360" y="45" as="sourcePoint" />
            <mxPoint x="399.99999999999966" y="45.482000000000006" as="targetPoint" />
            <Array as="points" />
          </mxGeometry>
        </mxCell>
        <mxCell id="WiS_gK4JU12ZDPDede6Y-98" value="" style="endArrow=diamondThin;html=1;rounded=0;exitX=-0.026;exitY=0.478;exitDx=0;exitDy=0;endFill=0;endSize=14;entryX=1.017;entryY=0.935;entryDx=0;entryDy=0;exitPerimeter=0;entryPerimeter=0;" edge="1" parent="WIyWlLk6GJQsqaUBKTNV-1" source="WiS_gK4JU12ZDPDede6Y-13" target="zkfFHV4jXpPFQw0GAbJ--5">
          <mxGeometry width="50" height="50" relative="1" as="geometry">
            <mxPoint x="690" y="-550" as="sourcePoint" />
            <mxPoint x="691.4000000000001" y="-655.184" as="targetPoint" />
            <Array as="points" />
          </mxGeometry>
        </mxCell>
        <mxCell id="WiS_gK4JU12ZDPDede6Y-99" value="" style="endArrow=diamondThin;html=1;rounded=0;endFill=0;endSize=14;entryX=-0.001;entryY=0.964;entryDx=0;entryDy=0;entryPerimeter=0;" edge="1" parent="WIyWlLk6GJQsqaUBKTNV-1" target="WiS_gK4JU12ZDPDede6Y-13">
          <mxGeometry width="50" height="50" relative="1" as="geometry">
            <mxPoint x="760" y="-370" as="sourcePoint" />
            <mxPoint x="492.72" y="-605.9799999999998" as="targetPoint" />
            <Array as="points" />
          </mxGeometry>
        </mxCell>
        <mxCell id="WiS_gK4JU12ZDPDede6Y-100" value="" style="endArrow=diamondThin;html=1;rounded=0;endFill=0;endSize=14;entryX=1.018;entryY=0.8;entryDx=0;entryDy=0;entryPerimeter=0;exitX=1;exitY=0.5;exitDx=0;exitDy=0;" edge="1" parent="WIyWlLk6GJQsqaUBKTNV-1" source="WiS_gK4JU12ZDPDede6Y-49" target="WiS_gK4JU12ZDPDede6Y-13">
          <mxGeometry width="50" height="50" relative="1" as="geometry">
            <mxPoint x="770" y="63" as="sourcePoint" />
            <mxPoint x="859.7399999999998" y="11.43600000000015" as="targetPoint" />
            <Array as="points">
              <mxPoint x="1190" y="80" />
              <mxPoint x="1190" y="-453" />
            </Array>
          </mxGeometry>
        </mxCell>
        <mxCell id="WiS_gK4JU12ZDPDede6Y-103" value="" style="endArrow=diamondThin;html=1;rounded=0;endFill=0;endSize=14;" edge="1" parent="WIyWlLk6GJQsqaUBKTNV-1">
          <mxGeometry width="50" height="50" relative="1" as="geometry">
            <mxPoint x="390" y="-920" as="sourcePoint" />
            <mxPoint x="390" y="-880" as="targetPoint" />
            <Array as="points" />
          </mxGeometry>
        </mxCell>
      </root>
    </mxGraphModel>
  </diagram>
</mxfile>
